<svg xmlns="http://www.w3.org/2000/svg" version="1.1"
     width="1000" height="489" viewBox="0 0 1000 489">
    <g transform="matrix(1,0,0,1,-0.6060606060606233,-0.015560393719567855)">
        <svg viewBox="0 0 396 194" data-background-color="#ffffff" preserveAspectRatio="xMidYMid meet" height="489"
             width="1000" xmlns="http://www.w3.org/2000/svg">
            <g id="tight-bounds" transform="matrix(1,0,0,1,0.2400000000000091,0.006173244134146216)">
                <svg viewBox="0 0 395.52 193.9876535117317" height="193.9876535117317" width="395.52">
                    <g>
                        <svg viewBox="0 0 397.4975999999999 194.95759177929034" height="193.9876535117317"
                             width="395.52">
                            <g>
                                <rect width="397.4975999999999" height="5.971293543158917" x="0" y="107.14012200637058"
                                      fill="#abddd9" opacity="1" stroke-width="0" stroke="transparent" fill-opacity="1"
                                      class="rect-o-0" data-fill-palette-color="secondary" rx="1%" id="o-0"
                                      data-palette-color="#abddd9"></rect>
                            </g>
                            <g transform="matrix(1,0,0,1,0.9887999999999693,128.7430740394743)">
                                <svg viewBox="0 0 395.52 66.21451773981603" height="66.21451773981603" width="395.52">
                                    <g id="textblocktransform">
                                        <svg viewBox="0 0 395.52 66.21451773981603" height="66.21451773981603"
                                             width="395.52" id="textblock">
                                            <g>
                                                <svg viewBox="0 0 395.52 66.21451773981603" height="66.21451773981603"
                                                     width="395.52">
                                                    <g transform="matrix(1,0,0,1,0,0)">
                                                        <svg width="395.52"
                                                             viewBox="0.9500000476837158 -30.739999771118164 185.77999877929688 31.110000610351562"
                                                             height="66.21451773981603" data-palette-color="#124948">
                                                            <path d="M11.16 0.37Q8.08 0.37 5.75-0.26 3.42-0.88 2.19-1.78 0.95-2.69 0.95-3.49L0.95-3.49Q0.95-4.13 1.43-5.05 1.9-5.98 2.56-6.65 3.22-7.32 3.66-7.32L3.66-7.32Q3.93-7.32 4.81-6.86L4.81-6.86Q6.13-6.18 7.31-5.76 8.5-5.35 10.03-5.35L10.03-5.35Q11.74-5.35 12.93-6.02 14.11-6.69 14.11-8.37L14.11-8.37Q14.11-9.35 13.5-10.06 12.89-10.77 11.94-11.25 10.99-11.74 9.35-12.4L9.35-12.4 7.42-13.23Q5.66-14.09 4.41-15.11 3.15-16.14 2.36-17.82 1.56-19.51 1.56-21.95L1.56-21.95Q1.56-24.93 3.03-26.9 4.49-28.88 6.84-29.81 9.18-30.74 11.87-30.74L11.87-30.74Q14.06-30.74 15.84-30.29 17.63-29.83 18.64-29.13 19.65-28.42 19.65-27.71L19.65-27.71Q19.65-27.12 19.27-26.21 18.9-25.29 18.33-24.61 17.77-23.93 17.29-23.93L17.29-23.93Q17.07-23.93 16.5-24.17L16.5-24.17Q15.6-24.54 14.69-24.77 13.77-25 12.45-25L12.45-25Q10.18-25 9.3-24.28 8.42-23.56 8.42-22.58L8.42-22.58Q8.42-21.46 9.02-20.7 9.62-19.95 10.53-19.46 11.45-18.97 13.09-18.33L13.09-18.33Q15.55-17.29 17.11-16.35 18.68-15.41 19.81-13.65 20.95-11.89 20.95-9.16L20.95-9.16Q20.95-5.81 19.54-3.67 18.14-1.54 15.93-0.59 13.72 0.37 11.16 0.37L11.16 0.37ZM27.05 0.12Q25.73 0.12 25.08-0.24 24.44-0.61 24.44-1.29L24.44-1.29 24.44-29.08Q24.44-30.52 27.05-30.52L27.05-30.52 28.56-30.52Q29.9-30.52 30.53-30.15 31.15-29.79 31.15-29.08L31.15-29.08 31.15-1.29Q31.15 0.12 28.56 0.12L28.56 0.12 27.05 0.12ZM43.11 0.07Q42.06 0.07 41.45-0.16 40.84-0.39 40.74-0.83L40.74-0.83 33.88-28.69Q33.78-28.96 33.78-29.35L33.78-29.35Q33.78-29.88 34.46-30.19 35.13-30.49 36.49-30.49L36.49-30.49 37.62-30.49Q40.16-30.49 40.52-29.13L40.52-29.13 43.77-15.16Q43.84-14.79 44.36-12.4L44.36-12.4 45.11-8.91Q45.41-10.69 46.24-13.87L46.24-13.87 46.58-15.16 50.17-29.57Q50.26-30.05 50.86-30.27 51.46-30.49 52.53-30.49L52.53-30.49 54.19-30.49Q55.27-30.49 55.87-30.27 56.46-30.05 56.56-29.57L56.56-29.57 60-15.16Q60.64-12.48 61.49-8.62L61.49-8.62Q61.59-9.06 62.18-11.69L62.18-11.69 62.96-15.16 66.33-29.13Q66.69-30.49 69.23-30.49L69.23-30.49 69.72-30.49Q71.06-30.49 71.74-30.19 72.41-29.88 72.41-29.35L72.41-29.35Q72.41-29.17 72.38-29.02 72.36-28.86 72.33-28.69L72.33-28.69 65.25-0.83Q65.13-0.39 64.47-0.16 63.81 0.07 62.86 0.07L62.86 0.07 59.69 0.07Q58.74 0.07 58.08-0.16 57.42-0.39 57.32-0.83L57.32-0.83 53.75-15.84 53.07-18.8 52.31-15.84 48.63-0.83Q48.51-0.39 47.85-0.16 47.19 0.07 46.24 0.07L46.24 0.07 43.11 0.07ZM73.6 0.07Q70.94 0.07 70.94-0.88L70.94-0.88Q70.94-1.15 71.11-1.66L71.11-1.66 80.68-29.57Q81.02-30.49 83.15-30.49L83.15-30.49 85.39-30.49Q87.52-30.49 87.86-29.57L87.86-29.57 97.43-1.66Q97.55-1.17 97.55-0.88L97.55-0.88Q97.55-0.39 97.03-0.16 96.5 0.07 95.38 0.07L95.38 0.07 93.47 0.07Q92.45 0.07 91.83-0.13 91.2-0.34 91.06-0.83L91.06-0.83 89.3-6.13 79.07-6.13 77.31-0.83Q77.04 0.07 75.31 0.07L75.31 0.07 73.6 0.07ZM80.93-11.87L87.44-11.87 84.98-19.58Q84.76-20.17 84.6-20.92 84.44-21.68 84.32-22.36L84.32-22.36 84.15-22.36 84.05-21.83Q83.81-20.39 83.49-19.58L83.49-19.58 80.93-11.87ZM102.28 0Q101.38 0 100.97-0.42 100.55-0.83 100.55-1.73L100.55-1.73 100.55-29.08Q100.55-29.79 101.19-30.14 101.82-30.49 103.16-30.49L103.16-30.49 104.63-30.49Q105.97-30.49 106.61-30.14 107.24-29.79 107.24-29.08L107.24-29.08 107.24-5.69 116.91-5.69Q117.59-5.69 117.9-5.18 118.2-4.66 118.2-3.54L118.2-3.54 118.2-2.17Q118.2-1.03 117.9-0.51 117.59 0 116.91 0L116.91 0 102.28 0ZM123.28 0Q122.38 0 121.96-0.42 121.55-0.83 121.55-1.73L121.55-1.73 121.55-29.08Q121.55-29.79 122.18-30.14 122.81-30.49 124.16-30.49L124.16-30.49 125.62-30.49Q126.97-30.49 127.6-30.14 128.23-29.79 128.23-29.08L128.23-29.08 128.23-5.69 137.9-5.69Q138.59-5.69 138.89-5.18 139.2-4.66 139.2-3.54L139.2-3.54 139.2-2.17Q139.2-1.03 138.89-0.51 138.59 0 137.9 0L137.9 0 123.28 0ZM144.27 0Q143.37 0 142.95-0.42 142.54-0.83 142.54-1.73L142.54-1.73 142.54-28.66Q142.54-29.57 142.95-29.97 143.37-30.37 144.27-30.37L144.27-30.37 160.17-30.37Q160.85-30.37 161.15-29.86 161.46-29.35 161.46-28.2L161.46-28.2 161.46-26.88Q161.46-25.73 161.15-25.22 160.85-24.71 160.17-24.71L160.17-24.71 149.23-24.71 149.23-18.41 158.99-18.41Q159.68-18.41 159.98-17.9 160.29-17.38 160.29-16.24L160.29-16.24 160.29-14.89Q160.29-13.75 159.98-13.23 159.68-12.72 158.99-12.72L158.99-12.72 149.23-12.72 149.23-5.69 160.19-5.69Q160.87-5.69 161.18-5.18 161.48-4.66 161.48-3.54L161.48-3.54 161.48-2.17Q161.48-1.03 161.18-0.51 160.87 0 160.19 0L160.19 0 144.27 0ZM174.4 0.07Q171.78 0.07 171.78-1.29L171.78-1.29 171.78-24.71 164.9-24.71Q164.22-24.71 163.91-25.22 163.61-25.73 163.61-26.88L163.61-26.88 163.61-28.2Q163.61-29.35 163.91-29.86 164.22-30.37 164.9-30.37L164.9-30.37 185.43-30.37Q186.12-30.37 186.42-29.86 186.73-29.35 186.73-28.2L186.73-28.2 186.73-26.88Q186.73-25.73 186.42-25.22 186.12-24.71 185.43-24.71L185.43-24.71 178.52-24.71 178.52-1.29Q178.52 0.07 175.91 0.07L175.91 0.07 174.4 0.07Z"
                                                                  opacity="1" transform="matrix(1,0,0,1,0,0)"
                                                                  fill="#124948" class="wordmark-text-0"
                                                                  data-fill-palette-color="primary" id="text-0"></path>
                                                        </svg>
                                                    </g>
                                                </svg>
                                            </g>
                                        </svg>
                                    </g>
                                </svg>
                            </g>
                            <g transform="matrix(1,0,0,1,149.81141466386464,0)">
                                <svg viewBox="0 0 97.87477067227066 91.50846351642576" height="91.50846351642576"
                                     width="97.87477067227066">
                                    <g>
                                        <svg xmlns="http://www.w3.org/2000/svg" version="1.1" x="8" y="0"
                                             viewBox="6.992999076843262 2.926999568939209 83.76400756835938 93.6199951171875"
                                             enable-background="new 0 0 100 100" xml:space="preserve"
                                             height="91.50846351642576" width="81.87477067227066" class="icon-icon-0"
                                             data-fill-palette-color="accent" id="icon-0"><g fill="#3d9970" data-fill-palette-color="accent"><g fill="#3d9970" data-fill-palette-color="accent"><path fill-rule="evenodd" clip-rule="evenodd" d="M90.746 9.084c0-3.401-2.756-6.157-6.157-6.157H21.54l13.895 10.468h40.848c1.533 0 2.773 1.244 2.773 2.774 0 1.53-1.24 2.77-2.773 2.77H42.794l8.995 6.777h24.493c1.533 0 2.773 1.24 2.773 2.771 0 1.53-1.24 2.77-2.773 2.77H59.144l0.818 0.617c0 0 6.156 3.526 6.156 6.16v30.795h18.479c3.404 0 6.16-2.759 6.16-6.161L90.746 9.084zM55.034 33.723L13.152 2.927c-3.401 0-6.159 2.755-6.159 6.157V59.59c0 2.719 1.734 3.156 6.159 6.16l41.882 30.797c3.4 0 6.16-2.76 6.16-6.162V39.879C61.124 37.641 55.034 33.723 55.034 33.723z" fill="#3d9970" data-fill-palette-color="accent"></path></g></g></svg>
                                    </g>
                                </svg>
                            </g>
                            <g>
                                <rect width="73.27829466386467" height="5.971293543158917" y="84.53716997326684"
                                      x="247.68618533613528" fill="#abddd9" data-fill-palette-color="secondary"></rect>
                                <rect width="73.27829466386467" height="5.971293543158917" y="84.53716997326684"
                                      x="76.53311999999997" fill="#abddd9" data-fill-palette-color="secondary"></rect>
                            </g>
                        </svg>
                    </g>
                    <defs></defs>
                </svg>
                <rect width="395.52" height="193.9876535117317" fill="none" stroke="none" visibility="hidden"></rect>
            </g>
        </svg>
    </g>
</svg>